id,"code",license_id,activated,activated_by,"activated_on"
87,"AVX-SJI4QV",3,0,NULL,NULL
88,"AVX-LESY5L",3,0,NULL,NULL
89,"AVX-VVEQS1",4,0,NULL,NULL
90,"AVX-GEH8ZB",4,0,NULL,NULL
91,"AVX-LTT2XJ",4,0,NULL,NULL
92,"AVX-IS1ZNZ",4,0,NULL,NULL
93,"AVX-BUR7T2",4,0,NULL,NULL
94,"AVX-1PWEFN",4,0,NULL,NULL
95,"AVX-EW2W52",4,0,NULL,NULL
96,"AVX-8QU2SR",4,0,NULL,NULL
97,"AVX-KAJK98",4,0,NULL,NULL
98,"AVX-JK2BSV",4,0,NULL,NULL
99,"AVX-CSK971",4,0,NULL,NULL
100,"AVX-WLWYI2",4,0,NULL,NULL
101,"AVX-ZQSURJ",4,0,NULL,NULL
102,"AVX-KBU4W4",4,0,NULL,NULL
103,"AVX-CGPDSG",4,0,NULL,NULL
104,"AVX-959TDG",4,0,NULL,NULL
105,"AVX-TA2Q8J",4,0,NULL,NULL
106,"AVX-R8AJ21",4,0,NULL,NULL
107,"AVX-3MCXR9",4,0,NULL,NULL
108,"AVX-13PQGH",4,0,NULL,NULL
109,"AVX-6PLFIY",4,0,NULL,NULL
110,"AVX-WB8X2G",4,0,NULL,NULL
111,"AVX-HTPSCR",4,0,NULL,NULL
112,"AVX-TFD6C5",4,0,NULL,NULL
113,"AVX-ED743N",4,0,NULL,NULL
114,"AVX-K9C6PU",4,0,NULL,NULL
115,"AVX-5K6DI7",4,0,NULL,NULL
116,"AVX-U11ISC",4,0,NULL,NULL
117,"AVX-AKRNR4",4,0,NULL,NULL
118,"AVX-S5HZ8J",4,0,NULL,NULL
119,"AVX-MTTZZI",4,0,NULL,NULL
120,"AVX-U43ZHL",4,0,NULL,NULL
121,"AVX-7BL7UE",4,0,NULL,NULL
122,"AVX-I4ZARQ",4,0,NULL,NULL
123,"AVX-DJVUJ4",4,0,NULL,NULL
124,"AVX-E6W76V",4,0,NULL,NULL
125,"AVX-QZZSYG",4,0,NULL,NULL
126,"AVX-E6S1CL",4,0,NULL,NULL
127,"AVX-EVQE5H",4,0,NULL,NULL
128,"AVX-4I1ZDK",4,0,NULL,NULL
129,"AVX-3RRZYW",4,0,NULL,NULL
130,"AVX-UNVUGU",4,0,NULL,NULL
131,"AVX-BUZ3UC",4,0,NULL,NULL
132,"AVX-P97EMC",4,0,NULL,NULL
133,"AVX-VRVWQ8",4,0,NULL,NULL
134,"AVX-GTZ7SX",4,0,NULL,NULL
135,"AVX-4MLYH3",4,0,NULL,NULL
136,"AVX-TSWTVR",4,0,NULL,NULL
137,"AVX-6J1CXN",4,0,NULL,NULL
138,"AVX-PTEJQ5",4,0,NULL,NULL
